"fullName","nickName","phoneNumber","website","address"
"Shams Nahid","nahid","[1233456]","mysite.com","Rajshahi"
"Slim Shaddy","Eminem","[456]","em.com","8 Mile"
"Jay Z","Broklyn Boy","[988]","jay.com","NY"